<svg xmlns="http://www.w3.org/2000/svg" viewBox="0 0 22.27 19.65" width="24" height="24">
  <defs><style>.cls-1{fill:#ff4040}</style></defs>
  <path id="noun_Warning_170417_000000" d="M-178.5 234.4l-9.733-16.85a1.4 1.4 0 0 0-2.421 0l-9.733 16.85a1.4 1.4 0 0 0 1.2 2.1h19.467a1.4 1.4 0 0 0 1.22-2.1zm-11.25-11.69a1.268 1.268 0 0 1 1.443.685 1.08 1.08 0 0 1 .1.611c-.049.611-.073 1.223-.1 1.859-.049.954-.122 1.932-.171 2.886-.024.293-.024.587-.049.9a.924.924 0 0 1-.929.9.936.936 0 0 1-.929-.88c-.073-1.492-.171-2.984-.245-4.475l-.073-1.2a1.343 1.343 0 0 1 .951-1.289zm.318 11.2a1.232 1.232 0 0 1-1.223-1.247 1.252 1.252 0 0 1 1.247-1.247 1.238 1.238 0 0 1 1.223 1.272 1.281 1.281 0 0 1-1.249 1.22z" class="cls-1" transform="translate(200.582 -216.85)"/>
</svg>
